cases/uvm_router/vcs_sim/verdiLog/sim.log
Command: /home/saizhang/sv_test/cases/uvm_router/vcs_sim/simv +ntb_random_seed_automatic +UVM_TESTNAME=m_test1 verdi +UVM_VERDI_TRACE=UVM_AWARE+RAL+HIER+COMPWAVE +UVM_TR_RECORD -sml=verdi +fsdb+gate=off -ucli2Proc -ucli -l /home/saizhang/sv_test/cases/uvm_router/vcs_sim/verdiLog/sim.log
Notice: timing checks disabled with +notimingcheck at compile-time
Chronologic VCS simulator copyright 1991-2020
Contains Synopsys proprietary information.
Compiler version Q-2020.03-SP2-7_Full64; Runtime version Q-2020.03-SP2-7_Full64;  Nov 10 03:18 2024
NOTE: automatic random seed used: 1907581336
<slp!&*()_+>
----------------------------------------------------------------
<slb!&*()_+>---<sls!&*()_+>loc: -1<sls!&*()_+>src: /usr/Synopsys/vcs/Q-2020.03-SP2-7/etc/uvm-1.1/base/uvm_root.svh<sls!&*()_+>line: 316<sls!&*()_+>time: 0 ns<sls!&*()_+>length: 0<sls!&*()_+>...<sls!&*()_+><sle!&*()_+>
<slp!&*()_+>
UVM-1.1d.Synopsys
<slb!&*()_+>---<sls!&*()_+>loc: -1<sls!&*()_+>src: /usr/Synopsys/vcs/Q-2020.03-SP2-7/etc/uvm-1.1/base/uvm_root.svh<sls!&*()_+>line: 316<sls!&*()_+>time: 0 ns<sls!&*()_+>length: 0<sls!&*()_+>...<sls!&*()_+><sle!&*()_+>
<slp!&*()_+>
(C) 2007-2013 Mentor Graphics Corporation
<slb!&*()_+>---<sls!&*()_+>loc: -1<sls!&*()_+>src: /usr/Synopsys/vcs/Q-2020.03-SP2-7/etc/uvm-1.1/base/uvm_root.svh<sls!&*()_+>line: 316<sls!&*()_+>time: 0 ns<sls!&*()_+>length: 0<sls!&*()_+>...<sls!&*()_+><sle!&*()_+>
<slp!&*()_+>
(C) 2007-2013 Cadence Design Systems, Inc.
<slb!&*()_+>---<sls!&*()_+>loc: -1<sls!&*()_+>src: /usr/Synopsys/vcs/Q-2020.03-SP2-7/etc/uvm-1.1/base/uvm_root.svh<sls!&*()_+>line: 316<sls!&*()_+>time: 0 ns<sls!&*()_+>length: 0<sls!&*()_+>...<sls!&*()_+><sle!&*()_+>
<slp!&*()_+>
(C) 2006-2013 Synopsys, Inc.
<slb!&*()_+>---<sls!&*()_+>loc: -1<sls!&*()_+>src: /usr/Synopsys/vcs/Q-2020.03-SP2-7/etc/uvm-1.1/base/uvm_root.svh<sls!&*()_+>line: 316<sls!&*()_+>time: 0 ns<sls!&*()_+>length: 0<sls!&*()_+>...<sls!&*()_+><sle!&*()_+>
<slp!&*()_+>
(C) 2011-2013 Cypress Semiconductor Corp.
<slb!&*()_+>---<sls!&*()_+>loc: -1<sls!&*()_+>src: /usr/Synopsys/vcs/Q-2020.03-SP2-7/etc/uvm-1.1/base/uvm_root.svh<sls!&*()_+>line: 316<sls!&*()_+>time: 0 ns<sls!&*()_+>length: 0<sls!&*()_+>...<sls!&*()_+><sle!&*()_+>
<slp!&*()_+>
----------------------------------------------------------------
<slb!&*()_+>---<sls!&*()_+>loc: -1<sls!&*()_+>src: /usr/Synopsys/vcs/Q-2020.03-SP2-7/etc/uvm-1.1/base/uvm_root.svh<sls!&*()_+>line: 316<sls!&*()_+>time: 0 ns<sls!&*()_+>length: 0<sls!&*()_+>...<sls!&*()_+><sle!&*()_+>
<slp!&*()_+>
  ***********       IMPORTANT RELEASE NOTES         ************
<slb!&*()_+>---<sls!&*()_+>loc: -1<sls!&*()_+>src: /usr/Synopsys/vcs/Q-2020.03-SP2-7/etc/uvm-1.1/base/uvm_root.svh<sls!&*()_+>line: 316<sls!&*()_+>time: 0 ns<sls!&*()_+>length: 0<sls!&*()_+>...<sls!&*()_+><sle!&*()_+>
<slp!&*()_+>
  You are using a version of the UVM library that has been compiled
<slb!&*()_+>---<sls!&*()_+>loc: -1<sls!&*()_+>src: /usr/Synopsys/vcs/Q-2020.03-SP2-7/etc/uvm-1.1/base/uvm_root.svh<sls!&*()_+>line: 316<sls!&*()_+>time: 0 ns<sls!&*()_+>length: 0<sls!&*()_+>...<sls!&*()_+><sle!&*()_+>
<slp!&*()_+>
  with `UVM_NO_DEPRECATED undefined.
<slb!&*()_+>---<sls!&*()_+>loc: -1<sls!&*()_+>src: /usr/Synopsys/vcs/Q-2020.03-SP2-7/etc/uvm-1.1/base/uvm_root.svh<sls!&*()_+>line: 316<sls!&*()_+>time: 0 ns<sls!&*()_+>length: 0<sls!&*()_+>...<sls!&*()_+><sle!&*()_+>
<slp!&*()_+>
  See http://www.eda.org/svdb/view.php?id=3313 for more details.
<slb!&*()_+>---<sls!&*()_+>loc: -1<sls!&*()_+>src: /usr/Synopsys/vcs/Q-2020.03-SP2-7/etc/uvm-1.1/base/uvm_root.svh<sls!&*()_+>line: 316<sls!&*()_+>time: 0 ns<sls!&*()_+>length: 0<sls!&*()_+>...<sls!&*()_+><sle!&*()_+>
<slp!&*()_+>
  You are using a version of the UVM library that has been compiled
<slb!&*()_+>---<sls!&*()_+>loc: -1<sls!&*()_+>src: /usr/Synopsys/vcs/Q-2020.03-SP2-7/etc/uvm-1.1/base/uvm_root.svh<sls!&*()_+>line: 316<sls!&*()_+>time: 0 ns<sls!&*()_+>length: 0<sls!&*()_+>...<sls!&*()_+><sle!&*()_+>
<slp!&*()_+>
  with `UVM_OBJECT_MUST_HAVE_CONSTRUCTOR undefined.
<slb!&*()_+>---<sls!&*()_+>loc: -1<sls!&*()_+>src: /usr/Synopsys/vcs/Q-2020.03-SP2-7/etc/uvm-1.1/base/uvm_root.svh<sls!&*()_+>line: 316<sls!&*()_+>time: 0 ns<sls!&*()_+>length: 0<sls!&*()_+>...<sls!&*()_+><sle!&*()_+>
<slp!&*()_+>
  See http://www.eda.org/svdb/view.php?id=3770 for more details.
<slb!&*()_+>---<sls!&*()_+>loc: -1<sls!&*()_+>src: /usr/Synopsys/vcs/Q-2020.03-SP2-7/etc/uvm-1.1/base/uvm_root.svh<sls!&*()_+>line: 316<sls!&*()_+>time: 0 ns<sls!&*()_+>length: 0<sls!&*()_+>...<sls!&*()_+><sle!&*()_+>
<slp!&*()_+>
      (Specify +UVM_NO_RELNOTES to turn off this notice)
<slb!&*()_+>---<sls!&*()_+>loc: -1<sls!&*()_+>src: /usr/Synopsys/vcs/Q-2020.03-SP2-7/etc/uvm-1.1/base/uvm_root.svh<sls!&*()_+>line: 316<sls!&*()_+>time: 0 ns<sls!&*()_+>length: 0<sls!&*()_+>...<sls!&*()_+><sle!&*()_+>

ucli% synUtils::getArch
linux64
ucli% loaddl -simv /usr/Synopsys/verdi/R-2020.12-SP1/share/PLI/VCS/LINUXAMD64/libnovas.so LoadFSDBDumpCmd;LoadFSDBDumpCmd
LoadFSDBDumpCmd success
ucli% config ckptfsdbcheck off;config endofsim noexit;config onfail {enable all};config followactivescope on;catch {setUcliVerdiConnected};set watch::resultTagsForVerdiBP {<ucli_break_bp_status_begin> <ucli_break_bp_status_end>};cbug::config pretty_print auto;fsdbDumpfile {/home/saizhang/sv_test/cases/uvm_router/vcs_sim/inter.fsdb} ;fsdbDumpflush ; 
*Verdi* Loading libsscore_vcs202003.so
FSDB Dumper for VCS, Release Verdi_R-2020.12-SP1, Linux x86_64/64bit, 03/02/2021
(C) 1996 - 2021 by Synopsys, Inc.
*Verdi* : Create FSDB file '/home/saizhang/sv_test/cases/uvm_router/vcs_sim/inter.fsdb'
*Verdi* : Flush all FSDB Files at 0 ns.

ucli% synEnv::hasFataled
0
ucli% ucliCore::getToolPID
16204
ucli% sps_interactive
*Verdi* : Enable RPC Server(16204)

ucli% ucliCore::getToolPID
16204
ucli% ucliCore::getToolPID
16204
ucli% if {[catch {ucliCore::setFocus tool}]} {}

ucli% puts $ucliCore::nativeUcliMode
0

ucli% ucliCore::getToolTopPID
16204
ucli% pid
16215
ucli% synUtils::sendTool -active {_icl_createSharedMemory /tmp/vcs_dve_general.saizhang.16204 }

ucli% if { [info vars watch::vcbp_str_len_limit_of_get_value] != ""} {set watch::vcbp_str_len_limit_of_get_value 1024}
1024
ucli% info command stateVerdiChangeCB

ucli% proc stateVerdiChangeCB args { if {$ucliGUI::state eq "terminated"} {puts "\n<VERDI_Terminated>\n";catch {setVerdiSimTerminated}}}

ucli% trace variable ucliGUI::state wu stateVerdiChangeCB

ucli% if {[catch {rename synopsys::restore verdiHack::restore} ]} {puts "0"}

ucli% proc synopsys::restore {args} { verdiHack::restore $args; puts "\n<VERDI_RESTORE>\n"}

ucli% if {[catch {rename quit verdiHack::quit} ]} {puts "0"}

ucli% proc quit {args} { if {[string length $args] == 0} { verdiHack::quit; } elseif {([string equal "-h" $args] == 1)||([string equal "-he" $args] == 1)||([string equal "-hel" $args] == 1)||([string equal "-help" $args] == 1)} { puts "\n quit           # Exit the simulation.\n \[-noprompt\]        (Exit the simulation and Verdi.)\n"} elseif {([string equal "-n" $args] == 1)||([string equal "-no" $args] == 1)||([string equal "-nop" $args] == 1)||([string equal "-nopr" $args] == 1)||([string equal "-nopro" $args] == 1)||([string equal "-noprom" $args] == 1)||([string equal "-nopromp" $args] == 1)||([string equal "-noprompt" $args] == 1)} { puts "\nVERDI_EXIT_N\n" } else { verdiHack::quit $args; } }

ucli% if {[catch {rename exit verdiHack::exit} ]} {puts "0"}

ucli% proc exit {args} { if {[string length $args] == 0} { verdiHack::exit; } elseif {([string equal "-h" $args] == 1)||([string equal "-he" $args] == 1)||([string equal "-hel" $args] == 1)||([string equal "-help" $args] == 1)} { puts "\n exit           # Exit the simulation.\n \[-noprompt\]        (Exit the simulation and Verdi.)\n"} elseif {([string equal "-n" $args] == 1)||([string equal "-no" $args] == 1)||([string equal "-nop" $args] == 1)||([string equal "-nopr" $args] == 1)||([string equal "-nopro" $args] == 1)||([string equal "-noprom" $args] == 1)||([string equal "-nopromp" $args] == 1)||([string equal "-noprompt" $args] == 1)} { puts "\nVERDI_EXIT_N\n" } else { verdiHack::exit $args; } }

ucli% proc checkpoint::beforeRecreate {} { sps_interactive }

ucli% if {[catch {ucliCore::setFocus tool}]} {}

ucli% save::getUserdefinedProcs
::stateVerdiChangeCB ::LoadFSDBDumpCmd
ucli% info procs
ipi_get_str fsdbDumpMDAByFile fsdbDumpMDA echo fsdbDumpMemNow fsdbAutoSwitchDumpfile unknown sps_interactive auto_import stat fsdbDumpfile setenv auto_execok pkg_mkIndex stateVerdiChangeCB fsdbDumpSingle proc_body ipi_begin fsdbDumpoff getenv fsdbDumplimit fsdbDumpPattern ipi_handle fsdbDumpvarsByFile fsdbDumpMDAInScope lminus ipi_sim_get ls auto_load_index proc_args fsdbAddRuntimeSignal fsdbDumpSC print_message_info ridbDump fsdbDumpSVAoff fsdbSuppress fsdbDumpvars help fsdbDumpMDAOnChange ipi_control auto_qualify fsdbDumpMem tclPkgUnknown printenv ipi_handle_by_name helpdoc fsdbDumpMemInScope fsdbDumpFinish is_true fsdbDumpon sh fsdbQueryInfo LoadFSDBDumpCmd fsdbDumpPSL fsdbDumpSVA ipi_end wrapperSpecmanSn fsdbDumpSVAon fsdbDumpClassObjectByFile is_false auto_load fsdbDumpPSLon ipi_get_int64 fsdbSubstituteHier ipi_get_value ipi_iterate exit fsdbDumpMemInFile tclLog fsdbDumpflush get_unix_variable mem_debug ipi_scan fsdbDumpPSLoff fsdbDumpClassObject fsdbDumpvarsToFile set_unix_variable bgerror fsdbDumpStrength clock add_group fsdbSwitchDumpfile source add_wave unsetenv fsdbDumpvarsES readline fsdbDisplay ipi_handle_free set_group ipi_get quit define_proc_attributes tclPkgSetup fsdbDumpMDANow ipi_init_play_tcl fsdbDumpIO
ucli% set ucliCore::resultTagsForVerdi [list <?special_verdi_begin?> <?special_verdi_end?>]
<?special_verdi_begin?> <?special_verdi_end?>
ucli% if {[catch {ucliCore::setFocus tool}]} {}

ucli% fsdbDumpflush 
*Verdi* : Flush all FSDB Files at 0 ns.

ucli% senv
activeDomain: Verilog
activeFile: /usr/Synopsys/vcs/Q-2020.03-SP2-7/etc/uvm-1.1/uvm_pkg.sv
activeFrame: -1
activeLine: 27
activeScope: uvm_pkg
activeThread: 0
endCol: 0
file: /usr/Synopsys/vcs/Q-2020.03-SP2-7/etc/uvm-1.1/uvm_pkg.sv
frame: -1
fsdbFilename: 
hasTB: 1
inputFilename: 
keyFilename: ucli.key
line: 27
logFilename: /home/saizhang/sv_test/cases/uvm_router/vcs_sim/verdiLog/sim.log
macroIndex: -1
macroOffset: -1
pid: 16204
scope: uvm_pkg
startCol: 0
state: stopped
thread: 0
time: 0
timePrecision: 1 ns
vcdFilename: 
vpdFilename:
ucli% puts $::ucliCore::cbug_active
0

ucli% if {[catch {ucliCore::setFocus tool}]} {}

ucli% checkpoint -list -all
There are no checkpoints present.
ucli% stop
No stop points are set
ucli% if {[catch {ucliCore::setFocus tool}]} {}

ucli% fsdbDumpvars 1 "tb.dut.reset_n"  +all +trace_process;fsdbDumpvars 1 "tb.dut.clock"  +all +trace_process;fsdbDumpvars 1 "tb.dut.frame_n"  +all +trace_process;fsdbDumpvars 1 "tb.dut.valid_n"  +all +trace_process;fsdbDumpvars 1 "tb.dut.din"  +all +trace_process;fsdbDumpvars 1 "tb.dut.dout"  +all +trace_process;fsdbDumpvars 1 "tb.dut.busy_n"  +all +trace_process;fsdbDumpvars 1 "tb.dut.valido_n"  +all +trace_process;fsdbDumpvars 1 "tb.dut.frameo_n"  +all +trace_process;fsdbDumpflush 
*Verdi* : Dumping the signal (tb.dut.reset_n).
*Verdi* : Dumping the signal (tb.dut.clock).
*Verdi* : Dumping the signal (tb.dut.frame_n).
*Verdi* : Dumping the signal (tb.dut.valid_n).
*Verdi* : Dumping the signal (tb.dut.din).
*Verdi* : Dumping the signal (tb.dut.dout).
*Verdi* : Dumping the signal (tb.dut.busy_n).
*Verdi* : Dumping the signal (tb.dut.valido_n).
*Verdi* : Dumping the signal (tb.dut.frameo_n).
*Verdi* : Flush all FSDB Files at 0 ns.

ucli% if {[catch {ucliCore::setFocus tool}]} {}

ucli% run
<slp!&*()_+>
*Verdi* Enable Verdi Message Catcher.
<slb!&*()_+>---<sls!&*()_+>loc: -1<sls!&*()_+>src: /usr/Synopsys/vcs/Q-2020.03-SP2-7/etc/uvm-1.1/verdi/uvm_verdi_message_catcher.svh<sls!&*()_+>line: 348<sls!&*()_+>time: 0 ns<sls!&*()_+>length: 0<sls!&*()_+>...<sls!&*()_+><sle!&*()_+>
*Verdi* : Begin dumping the Class Object by file (/usr/Synopsys/vcs/Q-2020.03-SP2-7/etc/uvm-1.1/verdi/component.config).
*Verdi* : End of class object dumping.
<slp!&*()_+>
UVM_INFO /usr/Synopsys/vcs/Q-2020.03-SP2-7/etc/uvm-1.1/verdi/uvm_custom_install_verdi_recorder.sv(274) @ 0: reporter [VERDI_TR_AUTO] +UVM_TR_RECORD implicitly enables recording_details to UVM_FULL for all components. For explicit control use +UVM_DISABLE_AUTO_COMPONENT and set recording_detail on components accordingly
<slb!&*()_+>---<sls!&*()_+>loc: -1<sls!&*()_+>src: /usr/Synopsys/vcs/Q-2020.03-SP2-7/etc/uvm-1.1/base/uvm_root.svh<sls!&*()_+>line: 279<sls!&*()_+>time: 0 ns<sls!&*()_+>length: 0<sls!&*()_+>...<sls!&*()_+><sle!&*()_+>
<slp!&*()_+>
*Verdi* Enable Verdi Factory Dumping.
<slb!&*()_+>---<sls!&*()_+>loc: -1<sls!&*()_+>src: /usr/Synopsys/vcs/Q-2020.03-SP2-7/etc/uvm-1.1/base/uvm_root.svh<sls!&*()_+>line: 390<sls!&*()_+>time: 0 ns<sls!&*()_+>length: 0<sls!&*()_+>...<sls!&*()_+><sle!&*()_+>
<slp!&*()_+>
UVM_INFO @ 0: reporter [RNTST] Running test m_test1...
<slb!&*()_+>---<sls!&*()_+>loc: -1<sls!&*()_+>src: /usr/Synopsys/vcs/Q-2020.03-SP2-7/etc/uvm-1.1/base/uvm_root.svh<sls!&*()_+>line: 279<sls!&*()_+>time: 0 ns<sls!&*()_+>length: 0<sls!&*()_+>...<sls!&*()_+><sle!&*()_+>
*Verdi* WARNING: Env/runtime option has specified fsdbfile name as "/home/saizhang/sv_test/cases/uvm_router/vcs_sim/inter.fsdb". Fsdbfile name in task "Tb.fsdb" is ignored.
*Verdi* : Begin traversing the scopes, layer (0).
*Verdi* : End of traversing.
VCD+ Writer Q-2020.03-SP2-7_Full64 Copyright (c) 1991-2020 by Synopsys Inc.
<slp!&*()_+>
UVM_INFO ../sim_src/m_env.sv(19) @ 0: uvm_test_top.env [ENV] @                   0 ns
<slb!&*()_+>---<sls!&*()_+>loc: -1<sls!&*()_+>src: ../sim_src/m_env.sv<sls!&*()_+>line: 19<sls!&*()_+>time: 0 ns<sls!&*()_+>length: 0<sls!&*()_+>...<sls!&*()_+><sle!&*()_+>
<slp!&*()_+>
*Verdi* Enable Verdi Recorder.
<slb!&*()_+>---<sls!&*()_+>loc: -1<sls!&*()_+>src: /usr/Synopsys/vcs/Q-2020.03-SP2-7/etc/uvm-1.1/verdi/uvm_verdi_recorder.svh<sls!&*()_+>line: 150<sls!&*()_+>time: 0 ns<sls!&*()_+>length: 0<sls!&*()_+>...<sls!&*()_+><sle!&*()_+>
<slp!&*()_+>
Info: Verdi UVM 1.1d Hooks File 07/11/2013 
<slb!&*()_+>---<sls!&*()_+>loc: -1<sls!&*()_+>src: /usr/Synopsys/vcs/Q-2020.03-SP2-7/etc/uvm-1.1/verdi/uvm_verdi_recorder.svh<sls!&*()_+>line: 193<sls!&*()_+>time: 0 ns<sls!&*()_+>length: 0<sls!&*()_+>...<sls!&*()_+><sle!&*()_+>
<slp!&*()_+>
UVM_INFO ../sim_src/m_driver.sv(24) @ 1: uvm_test_top.env.m_agt.m_drv [DRV] got one item 
 --------------------------------------------------------------------------------------------
Name                           Type          Size  Value                                    
--------------------------------------------------------------------------------------------
req                            m_transation  -     @645                                     
  src                          integral      4     'h5                                      
  dst                          integral      4     'h5                                      
  data                         integral      8     'h55                                     
  begin_time                   time          64    1                                        
  depth                        int           32    'd2                                      
  parent sequence (name)       string        12    uvm_sequence                             
  parent sequence (full name)  string        41    uvm_test_top.env.m_agt.m_sqr.uvm_sequence
  sequencer                    string        28    uvm_test_top.env.m_agt.m_sqr             
--------------------------------------------------------------------------------------------

<slb!&*()_+>---<sls!&*()_+>loc: -1<sls!&*()_+>src: ../sim_src/m_driver.sv<sls!&*()_+>line: 24<sls!&*()_+>time: 1 ns<sls!&*()_+>length: 0<sls!&*()_+>...<sls!&*()_+><sle!&*()_+>
<slp!&*()_+>
UVM_INFO ../sim_src/m_driver.sv(30) @ 185: uvm_test_top.env.m_agt.m_drv [DRV] send one item 
 ---------------------------------------
Name          Type          Size  Value
---------------------------------------
req           m_transation  -     @673 
  src         integral      4     'h5  
  dst         integral      4     'h5  
  data        integral      8     'hb9 
  begin_time  time          64    1    
---------------------------------------

<slb!&*()_+>---<sls!&*()_+>loc: -1<sls!&*()_+>src: ../sim_src/m_driver.sv<sls!&*()_+>line: 30<sls!&*()_+>time: 185 ns<sls!&*()_+>length: 0<sls!&*()_+>...<sls!&*()_+><sle!&*()_+>
<slp!&*()_+>
UVM_INFO ../sim_src/m_driver.sv(24) @ 186: uvm_test_top.env.m_agt.m_drv [DRV] got one item 
 --------------------------------------------------------------------------------------------
Name                           Type          Size  Value                                    
--------------------------------------------------------------------------------------------
req                            m_transation  -     @678                                     
  src                          integral      4     'h4                                      
  dst                          integral      4     'h6                                      
  data                         integral      8     'h64                                     
  begin_time                   time          64    186                                      
  depth                        int           32    'd2                                      
  parent sequence (name)       string        12    uvm_sequence                             
  parent sequence (full name)  string        41    uvm_test_top.env.m_agt.m_sqr.uvm_sequence
  sequencer                    string        28    uvm_test_top.env.m_agt.m_sqr             
--------------------------------------------------------------------------------------------

<slb!&*()_+>---<sls!&*()_+>loc: -1<sls!&*()_+>src: ../sim_src/m_driver.sv<sls!&*()_+>line: 24<sls!&*()_+>time: 186 ns<sls!&*()_+>length: 0<sls!&*()_+>...<sls!&*()_+><sle!&*()_+>
<slp!&*()_+>
UVM_INFO ../sim_src/m_driver.sv(30) @ 375: uvm_test_top.env.m_agt.m_drv [DRV] send one item 
 ---------------------------------------
Name          Type          Size  Value
---------------------------------------
req           m_transation  -     @682 
  src         integral      4     'h4  
  dst         integral      4     'h6  
  data        integral      8     'hc8 
  begin_time  time          64    186  
---------------------------------------

<slb!&*()_+>---<sls!&*()_+>loc: -1<sls!&*()_+>src: ../sim_src/m_driver.sv<sls!&*()_+>line: 30<sls!&*()_+>time: 375 ns<sls!&*()_+>length: 0<sls!&*()_+>...<sls!&*()_+><sle!&*()_+>
<slp!&*()_+>
UVM_INFO ../sim_src/m_env.sv(21) @ 375: uvm_test_top.env [ENV] @                 375 ns
<slb!&*()_+>---<sls!&*()_+>loc: -1<sls!&*()_+>src: ../sim_src/m_env.sv<sls!&*()_+>line: 21<sls!&*()_+>time: 375 ns<sls!&*()_+>length: 0<sls!&*()_+>...<sls!&*()_+><sle!&*()_+>
<slp!&*()_+>
UVM_INFO /usr/Synopsys/vcs/Q-2020.03-SP2-7/etc/uvm-1.1/base/uvm_objection.svh(1274) @ 375: reporter [TEST_DONE] 'run' phase is ready to proceed to the 'extract' phase
<slb!&*()_+>---<sls!&*()_+>loc: -1<sls!&*()_+>src: /usr/Synopsys/vcs/Q-2020.03-SP2-7/etc/uvm-1.1/base/uvm_root.svh<sls!&*()_+>line: 279<sls!&*()_+>time: 375 ns<sls!&*()_+>length: 0<sls!&*()_+>...<sls!&*()_+><sle!&*()_+>
<slp!&*()_+>

<slb!&*()_+>---<sls!&*()_+>loc: -1<sls!&*()_+>src: /usr/Synopsys/vcs/Q-2020.03-SP2-7/etc/uvm-1.1/base/uvm_report_catcher.svh<sls!&*()_+>line: 639<sls!&*()_+>time: 375 ns<sls!&*()_+>length: 0<sls!&*()_+>...<sls!&*()_+><sle!&*()_+>
<slp!&*()_+>
--- UVM Report catcher Summary ---
<slb!&*()_+>---<sls!&*()_+>loc: -1<sls!&*()_+>src: /usr/Synopsys/vcs/Q-2020.03-SP2-7/etc/uvm-1.1/base/uvm_report_catcher.svh<sls!&*()_+>line: 639<sls!&*()_+>time: 375 ns<sls!&*()_+>length: 0<sls!&*()_+>...<sls!&*()_+><sle!&*()_+>
<slp!&*()_+>

<slb!&*()_+>---<sls!&*()_+>loc: -1<sls!&*()_+>src: /usr/Synopsys/vcs/Q-2020.03-SP2-7/etc/uvm-1.1/base/uvm_report_catcher.svh<sls!&*()_+>line: 639<sls!&*()_+>time: 375 ns<sls!&*()_+>length: 0<sls!&*()_+>...<sls!&*()_+><sle!&*()_+>
<slp!&*()_+>

<slb!&*()_+>---<sls!&*()_+>loc: -1<sls!&*()_+>src: /usr/Synopsys/vcs/Q-2020.03-SP2-7/etc/uvm-1.1/base/uvm_report_catcher.svh<sls!&*()_+>line: 639<sls!&*()_+>time: 375 ns<sls!&*()_+>length: 0<sls!&*()_+>...<sls!&*()_+><sle!&*()_+>
<slp!&*()_+>
Number of demoted UVM_FATAL reports  :    0
<slb!&*()_+>---<sls!&*()_+>loc: -1<sls!&*()_+>src: /usr/Synopsys/vcs/Q-2020.03-SP2-7/etc/uvm-1.1/base/uvm_report_catcher.svh<sls!&*()_+>line: 639<sls!&*()_+>time: 375 ns<sls!&*()_+>length: 0<sls!&*()_+>...<sls!&*()_+><sle!&*()_+>
<slp!&*()_+>
Number of demoted UVM_ERROR reports  :    0
<slb!&*()_+>---<sls!&*()_+>loc: -1<sls!&*()_+>src: /usr/Synopsys/vcs/Q-2020.03-SP2-7/etc/uvm-1.1/base/uvm_report_catcher.svh<sls!&*()_+>line: 639<sls!&*()_+>time: 375 ns<sls!&*()_+>length: 0<sls!&*()_+>...<sls!&*()_+><sle!&*()_+>
<slp!&*()_+>
Number of demoted UVM_WARNING reports:    0
<slb!&*()_+>---<sls!&*()_+>loc: -1<sls!&*()_+>src: /usr/Synopsys/vcs/Q-2020.03-SP2-7/etc/uvm-1.1/base/uvm_report_catcher.svh<sls!&*()_+>line: 639<sls!&*()_+>time: 375 ns<sls!&*()_+>length: 0<sls!&*()_+>...<sls!&*()_+><sle!&*()_+>
<slp!&*()_+>
Number of caught UVM_FATAL reports   :    0
<slb!&*()_+>---<sls!&*()_+>loc: -1<sls!&*()_+>src: /usr/Synopsys/vcs/Q-2020.03-SP2-7/etc/uvm-1.1/base/uvm_report_catcher.svh<sls!&*()_+>line: 639<sls!&*()_+>time: 375 ns<sls!&*()_+>length: 0<sls!&*()_+>...<sls!&*()_+><sle!&*()_+>
<slp!&*()_+>
Number of caught UVM_ERROR reports   :    0
<slb!&*()_+>---<sls!&*()_+>loc: -1<sls!&*()_+>src: /usr/Synopsys/vcs/Q-2020.03-SP2-7/etc/uvm-1.1/base/uvm_report_catcher.svh<sls!&*()_+>line: 639<sls!&*()_+>time: 375 ns<sls!&*()_+>length: 0<sls!&*()_+>...<sls!&*()_+><sle!&*()_+>
<slp!&*()_+>
Number of caught UVM_WARNING reports :    0
<slb!&*()_+>---<sls!&*()_+>loc: -1<sls!&*()_+>src: /usr/Synopsys/vcs/Q-2020.03-SP2-7/etc/uvm-1.1/base/uvm_report_catcher.svh<sls!&*()_+>line: 639<sls!&*()_+>time: 375 ns<sls!&*()_+>length: 0<sls!&*()_+>...<sls!&*()_+><sle!&*()_+>
<slp!&*()_+>

<slb!&*()_+>---<sls!&*()_+>loc: -1<sls!&*()_+>src: /usr/Synopsys/vcs/Q-2020.03-SP2-7/etc/uvm-1.1/base/uvm_root.svh<sls!&*()_+>line: 434<sls!&*()_+>time: 375 ns<sls!&*()_+>length: 0<sls!&*()_+>...<sls!&*()_+><sle!&*()_+>
<slp!&*()_+>
--- UVM Report Summary ---
<slb!&*()_+>---<sls!&*()_+>loc: -1<sls!&*()_+>src: /usr/Synopsys/vcs/Q-2020.03-SP2-7/etc/uvm-1.1/base/uvm_root.svh<sls!&*()_+>line: 434<sls!&*()_+>time: 375 ns<sls!&*()_+>length: 0<sls!&*()_+>...<sls!&*()_+><sle!&*()_+>
<slp!&*()_+>

<slb!&*()_+>---<sls!&*()_+>loc: -1<sls!&*()_+>src: /usr/Synopsys/vcs/Q-2020.03-SP2-7/etc/uvm-1.1/base/uvm_root.svh<sls!&*()_+>line: 434<sls!&*()_+>time: 375 ns<sls!&*()_+>length: 0<sls!&*()_+>...<sls!&*()_+><sle!&*()_+>
<slp!&*()_+>
** Report counts by severity
<slb!&*()_+>---<sls!&*()_+>loc: -1<sls!&*()_+>src: /usr/Synopsys/vcs/Q-2020.03-SP2-7/etc/uvm-1.1/base/uvm_root.svh<sls!&*()_+>line: 434<sls!&*()_+>time: 375 ns<sls!&*()_+>length: 0<sls!&*()_+>...<sls!&*()_+><sle!&*()_+>
<slp!&*()_+>
UVM_INFO :    9
<slb!&*()_+>---<sls!&*()_+>loc: -1<sls!&*()_+>src: /usr/Synopsys/vcs/Q-2020.03-SP2-7/etc/uvm-1.1/base/uvm_root.svh<sls!&*()_+>line: 434<sls!&*()_+>time: 375 ns<sls!&*()_+>length: 0<sls!&*()_+>...<sls!&*()_+><sle!&*()_+>
<slp!&*()_+>
UVM_WARNING :    0
<slb!&*()_+>---<sls!&*()_+>loc: -1<sls!&*()_+>src: /usr/Synopsys/vcs/Q-2020.03-SP2-7/etc/uvm-1.1/base/uvm_root.svh<sls!&*()_+>line: 434<sls!&*()_+>time: 375 ns<sls!&*()_+>length: 0<sls!&*()_+>...<sls!&*()_+><sle!&*()_+>
<slp!&*()_+>
UVM_ERROR :    0
<slb!&*()_+>---<sls!&*()_+>loc: -1<sls!&*()_+>src: /usr/Synopsys/vcs/Q-2020.03-SP2-7/etc/uvm-1.1/base/uvm_root.svh<sls!&*()_+>line: 434<sls!&*()_+>time: 375 ns<sls!&*()_+>length: 0<sls!&*()_+>...<sls!&*()_+><sle!&*()_+>
<slp!&*()_+>
UVM_FATAL :    0
<slb!&*()_+>---<sls!&*()_+>loc: -1<sls!&*()_+>src: /usr/Synopsys/vcs/Q-2020.03-SP2-7/etc/uvm-1.1/base/uvm_root.svh<sls!&*()_+>line: 434<sls!&*()_+>time: 375 ns<sls!&*()_+>length: 0<sls!&*()_+>...<sls!&*()_+><sle!&*()_+>
<slp!&*()_+>
** Report counts by id
<slb!&*()_+>---<sls!&*()_+>loc: -1<sls!&*()_+>src: /usr/Synopsys/vcs/Q-2020.03-SP2-7/etc/uvm-1.1/base/uvm_root.svh<sls!&*()_+>line: 434<sls!&*()_+>time: 375 ns<sls!&*()_+>length: 0<sls!&*()_+>...<sls!&*()_+><sle!&*()_+>
<slp!&*()_+>
[DRV]     4
<slb!&*()_+>---<sls!&*()_+>loc: -1<sls!&*()_+>src: /usr/Synopsys/vcs/Q-2020.03-SP2-7/etc/uvm-1.1/base/uvm_root.svh<sls!&*()_+>line: 434<sls!&*()_+>time: 375 ns<sls!&*()_+>length: 0<sls!&*()_+>...<sls!&*()_+><sle!&*()_+>
<slp!&*()_+>
[ENV]     2
<slb!&*()_+>---<sls!&*()_+>loc: -1<sls!&*()_+>src: /usr/Synopsys/vcs/Q-2020.03-SP2-7/etc/uvm-1.1/base/uvm_root.svh<sls!&*()_+>line: 434<sls!&*()_+>time: 375 ns<sls!&*()_+>length: 0<sls!&*()_+>...<sls!&*()_+><sle!&*()_+>
<slp!&*()_+>
[RNTST]     1
